Test Case Name : THR_TYP_B1_TH_VTN_1
Thermostat Program - Typical Use case
Test Start Time : Thu Sep 12 13:45:33 PDT 2019
Test End Time : Thu Sep 12 13:48:31 PDT 2019
Name of Implementation
Version Number
1.1.4

--------------------------------------

Waiting for user action : Thu Sep 12 13:45:34 PDT 2019
User action received. Playing Test Case again. :Thu Sep 12 13:45:37 PDT 2019

-------------HTTP REQUEST-------------------
Current Time : 2019-09-12T20:45:57Z

----Client Address---
127.0.0.1

----Header---
[Accept: */*]
[Connection: keep-alive]
[Pragma: no-cache]
[Cache-Control: no-cache]
[Date: Thu, 12 Sep 2019 20:45:57 GMT]
[User-Agent: Restlet-Framework/2.1snapshot]
[Content-Type: application/xml; charset=UTF-8]
[Content-Length: 10480]
[Host: 127.0.0.1:8080]

VEN -> VTN
----------------REQUEST---------------------
Received by TestHarness VTN Service : EiReport

<?xml version="1.0" encoding="UTF-8"?>
<ns7:oadrPayload xmlns="http://www.w3.org/2000/09/xmldsig#"
  xmlns:ns10="http://www.opengis.net/gml/3.2"
  xmlns:ns11="http://docs.oasis-open.org/ns/emix/2011/06/siscale"
  xmlns:ns12="http://www.w3.org/2009/xmldsig11#"
  xmlns:ns13="urn:un:unece:uncefact:codelist:standard:5:ISO42173A:2010-04-07"
  xmlns:ns2="http://docs.oasis-open.org/ns/energyinterop/201110"
  xmlns:ns3="http://docs.oasis-open.org/ns/energyinterop/201110/payloads"
  xmlns:ns4="http://docs.oasis-open.org/ns/emix/2011/06"
  xmlns:ns5="urn:ietf:params:xml:ns:icalendar-2.0"
  xmlns:ns6="urn:ietf:params:xml:ns:icalendar-2.0:stream"
  xmlns:ns7="http://openadr.org/oadr-2.0b/2012/07"
  xmlns:ns8="http://www.w3.org/2005/Atom" xmlns:ns9="http://docs.oasis-open.org/ns/emix/2011/06/power">
  <ns7:oadrSignedObject>
    <ns7:oadrRegisterReport ns2:schemaVersion="2.0b">
      <ns3:requestID>RegReq091219_134547_872</ns3:requestID>
      <ns7:oadrReport>
        <ns5:duration>
          <ns5:duration>PT10M</ns5:duration>
        </ns5:duration>
        <ns7:oadrReportDescription>
          <ns2:rID>Power Real:rID091219_134549_483_1</ns2:rID>
          <ns2:reportDataSource>
            <ns2:venID>VEN090219_124714_657</ns2:venID>
          </ns2:reportDataSource>
          <ns2:reportType>usage</ns2:reportType>
          <ns9:powerReal>
            <ns9:itemDescription>RealPower</ns9:itemDescription>
            <ns9:itemUnits>W</ns9:itemUnits>
            <ns11:siScaleCode>k</ns11:siScaleCode>
            <ns9:powerAttributes>
              <ns9:hertz>60.0</ns9:hertz>
              <ns9:voltage>110.0</ns9:voltage>
              <ns9:ac>true</ns9:ac>
            </ns9:powerAttributes>
          </ns9:powerReal>
          <ns2:readingType>Direct Read</ns2:readingType>
          <ns4:marketContext>http://MarketContext1</ns4:marketContext>
          <ns7:oadrSamplingRate>
            <ns7:oadrMinPeriod>PT1M</ns7:oadrMinPeriod>
            <ns7:oadrMaxPeriod>PT1M</ns7:oadrMaxPeriod>
            <ns7:oadrOnChange>false</ns7:oadrOnChange>
          </ns7:oadrSamplingRate>
        </ns7:oadrReportDescription>
        <ns2:reportRequestID>0</ns2:reportRequestID>
        <ns2:reportSpecifierID>ReportSpecifierID091219_134548_441_0</ns2:reportSpecifierID>
        <ns2:reportName>METADATA_TELEMETRY_USAGE</ns2:reportName>
        <ns2:createdDateTime>2019-09-12T20:45:48Z</ns2:createdDateTime>
      </ns7:oadrReport>
      <ns7:oadrReport>
        <ns5:duration>
          <ns5:duration>PT10M</ns5:duration>
        </ns5:duration>
        <ns7:oadrReportDescription>
          <ns2:rID>Status:rID091219_134550_504_0</ns2:rID>
          <ns2:reportSubject>
            <ns9:endDeviceAsset>
              <ns9:mrid>Thermostat</ns9:mrid>
            </ns9:endDeviceAsset>
          </ns2:reportSubject>
          <ns2:reportDataSource>
            <ns2:venID>VEN090219_124714_657</ns2:venID>
          </ns2:reportDataSource>
          <ns2:reportType>x-resourceStatus</ns2:reportType>
          <ns2:readingType>x-notApplicable</ns2:readingType>
          <ns4:marketContext>http://MarketContext1</ns4:marketContext>
          <ns7:oadrSamplingRate>
            <ns7:oadrMinPeriod>PT1M</ns7:oadrMinPeriod>
            <ns7:oadrMaxPeriod>PT1M</ns7:oadrMaxPeriod>
            <ns7:oadrOnChange>false</ns7:oadrOnChange>
          </ns7:oadrSamplingRate>
        </ns7:oadrReportDescription>
        <ns7:oadrReportDescription>
          <ns2:rID>Current Temp:rID091219_134551_010_1</ns2:rID>
          <ns2:reportSubject>
            <ns9:endDeviceAsset>
              <ns9:mrid>Thermostat</ns9:mrid>
            </ns9:endDeviceAsset>
          </ns2:reportSubject>
          <ns2:reportDataSource>
            <ns2:venID>VEN090219_124714_657</ns2:venID>
          </ns2:reportDataSource>
          <ns2:reportType>setPoint</ns2:reportType>
          <ns7:temperature>
            <ns7:itemDescription>temperature</ns7:itemDescription>
            <ns7:itemUnits>fahrenheit</ns7:itemUnits>
            <ns11:siScaleCode>none</ns11:siScaleCode>
          </ns7:temperature>
          <ns2:readingType>x-notApplicable</ns2:readingType>
          <ns4:marketContext>http://MarketContext1</ns4:marketContext>
          <ns7:oadrSamplingRate>
            <ns7:oadrMinPeriod>PT1M</ns7:oadrMinPeriod>
            <ns7:oadrMaxPeriod>PT1M</ns7:oadrMaxPeriod>
            <ns7:oadrOnChange>false</ns7:oadrOnChange>
          </ns7:oadrSamplingRate>
        </ns7:oadrReportDescription>
        <ns7:oadrReportDescription>
          <ns2:rID>Heat Temp Setting:rID091219_134551_534_2</ns2:rID>
          <ns2:reportSubject>
            <ns9:endDeviceAsset>
              <ns9:mrid>Thermostat</ns9:mrid>
            </ns9:endDeviceAsset>
          </ns2:reportSubject>
          <ns2:reportDataSource>
            <ns2:venID>VEN090219_124714_657</ns2:venID>
          </ns2:reportDataSource>
          <ns2:reportType>setPoint</ns2:reportType>
          <ns7:temperature>
            <ns7:itemDescription>temperature</ns7:itemDescription>
            <ns7:itemUnits>fahrenheit</ns7:itemUnits>
            <ns11:siScaleCode>none</ns11:siScaleCode>
          </ns7:temperature>
          <ns2:readingType>x-notApplicable</ns2:readingType>
          <ns4:marketContext>http://MarketContext1</ns4:marketContext>
          <ns7:oadrSamplingRate>
            <ns7:oadrMinPeriod>PT1M</ns7:oadrMinPeriod>
            <ns7:oadrMaxPeriod>PT1M</ns7:oadrMaxPeriod>
            <ns7:oadrOnChange>false</ns7:oadrOnChange>
          </ns7:oadrSamplingRate>
        </ns7:oadrReportDescription>
        <ns7:oadrReportDescription>
          <ns2:rID>Cool Temp Setting:rID091219_134552_049_3</ns2:rID>
          <ns2:reportSubject>
            <ns9:endDeviceAsset>
              <ns9:mrid>Thermostat</ns9:mrid>
            </ns9:endDeviceAsset>
          </ns2:reportSubject>
          <ns2:reportDataSource>
            <ns2:venID>VEN090219_124714_657</ns2:venID>
          </ns2:reportDataSource>
          <ns2:reportType>setPoint</ns2:reportType>
          <ns7:temperature>
            <ns7:itemDescription>temperature</ns7:itemDescription>
            <ns7:itemUnits>fahrenheit</ns7:itemUnits>
            <ns11:siScaleCode>none</ns11:siScaleCode>
          </ns7:temperature>
          <ns2:readingType>x-notApplicable</ns2:readingType>
          <ns4:marketContext>http://MarketContext1</ns4:marketContext>
          <ns7:oadrSamplingRate>
            <ns7:oadrMinPeriod>PT1M</ns7:oadrMinPeriod>
            <ns7:oadrMaxPeriod>PT1M</ns7:oadrMaxPeriod>
            <ns7:oadrOnChange>false</ns7:oadrOnChange>
          </ns7:oadrSamplingRate>
        </ns7:oadrReportDescription>
        <ns7:oadrReportDescription>
          <ns2:rID>HVAC Mode Setting:rID091219_134552_564_4</ns2:rID>
          <ns2:reportSubject>
            <ns9:endDeviceAsset>
              <ns9:mrid>Thermostat</ns9:mrid>
            </ns9:endDeviceAsset>
          </ns2:reportSubject>
          <ns2:reportDataSource>
            <ns2:venID>VEN090219_124714_657</ns2:venID>
          </ns2:reportDataSource>
          <ns2:reportType>operatingState</ns2:reportType>
          <ns7:customUnit>
            <ns7:itemDescription>HVAC settings</ns7:itemDescription>
            <ns7:itemUnits>0=OFF,1=HEAT,2=COOL,3=AUTO</ns7:itemUnits>
            <ns11:siScaleCode>none</ns11:siScaleCode>
          </ns7:customUnit>
          <ns2:readingType>x-notApplicable</ns2:readingType>
          <ns4:marketContext>http://MarketContext1</ns4:marketContext>
          <ns7:oadrSamplingRate>
            <ns7:oadrMinPeriod>PT1M</ns7:oadrMinPeriod>
            <ns7:oadrMaxPeriod>PT1M</ns7:oadrMaxPeriod>
            <ns7:oadrOnChange>false</ns7:oadrOnChange>
          </ns7:oadrSamplingRate>
        </ns7:oadrReportDescription>
        <ns7:oadrReportDescription>
          <ns2:rID>Current HVAC Mode:rID091219_134553_085_5</ns2:rID>
          <ns2:reportSubject>
            <ns9:endDeviceAsset>
              <ns9:mrid>Thermostat</ns9:mrid>
            </ns9:endDeviceAsset>
          </ns2:reportSubject>
          <ns2:reportDataSource>
            <ns2:venID>VEN090219_124714_657</ns2:venID>
          </ns2:reportDataSource>
          <ns2:reportType>operatingState</ns2:reportType>
          <ns7:customUnit>
            <ns7:itemDescription>HVAC states</ns7:itemDescription>
            <ns7:itemUnits>0=OFF,1=HEAT,2=COOL</ns7:itemUnits>
            <ns11:siScaleCode>none</ns11:siScaleCode>
          </ns7:customUnit>
          <ns2:readingType>x-notApplicable</ns2:readingType>
          <ns4:marketContext>http://MarketContext1</ns4:marketContext>
          <ns7:oadrSamplingRate>
            <ns7:oadrMinPeriod>PT1M</ns7:oadrMinPeriod>
            <ns7:oadrMaxPeriod>PT1M</ns7:oadrMaxPeriod>
            <ns7:oadrOnChange>false</ns7:oadrOnChange>
          </ns7:oadrSamplingRate>
        </ns7:oadrReportDescription>
        <ns7:oadrReportDescription>
          <ns2:rID>Fan Mode Setting:rID091219_134553_593_6</ns2:rID>
          <ns2:reportSubject>
            <ns9:endDeviceAsset>
              <ns9:mrid>Thermostat</ns9:mrid>
            </ns9:endDeviceAsset>
          </ns2:reportSubject>
          <ns2:reportDataSource>
            <ns2:venID>VEN090219_124714_657</ns2:venID>
          </ns2:reportDataSource>
          <ns2:reportType>operatingState</ns2:reportType>
          <ns7:customUnit>
            <ns7:itemDescription>FAN settings</ns7:itemDescription>
            <ns7:itemUnits>0=OFF,1=ON,2=AUTO</ns7:itemUnits>
            <ns11:siScaleCode>none</ns11:siScaleCode>
          </ns7:customUnit>
          <ns2:readingType>x-notApplicable</ns2:readingType>
          <ns4:marketContext>http://MarketContext1</ns4:marketContext>
          <ns7:oadrSamplingRate>
            <ns7:oadrMinPeriod>PT1M</ns7:oadrMinPeriod>
            <ns7:oadrMaxPeriod>PT1M</ns7:oadrMaxPeriod>
            <ns7:oadrOnChange>false</ns7:oadrOnChange>
          </ns7:oadrSamplingRate>
        </ns7:oadrReportDescription>
        <ns7:oadrReportDescription>
          <ns2:rID>Current Hold Mode:rID091219_134554_111_7</ns2:rID>
          <ns2:reportSubject>
            <ns9:endDeviceAsset>
              <ns9:mrid>Thermostat</ns9:mrid>
            </ns9:endDeviceAsset>
          </ns2:reportSubject>
          <ns2:reportDataSource>
            <ns2:venID>VEN090219_124714_657</ns2:venID>
          </ns2:reportDataSource>
          <ns2:reportType>operatingState</ns2:reportType>
          <ns7:customUnit>
            <ns7:itemDescription>HOLD states</ns7:itemDescription>
            <ns7:itemUnits>0=none,1=temporary,2=permanent</ns7:itemUnits>
            <ns11:siScaleCode>none</ns11:siScaleCode>
          </ns7:customUnit>
          <ns2:readingType>x-notApplicable</ns2:readingType>
          <ns4:marketContext>http://MarketContext1</ns4:marketContext>
          <ns7:oadrSamplingRate>
            <ns7:oadrMinPeriod>PT1M</ns7:oadrMinPeriod>
            <ns7:oadrMaxPeriod>PT1M</ns7:oadrMaxPeriod>
            <ns7:oadrOnChange>false</ns7:oadrOnChange>
          </ns7:oadrSamplingRate>
        </ns7:oadrReportDescription>
        <ns7:oadrReportDescription>
          <ns2:rID>Current Away Mode:rID091219_134554_627_8</ns2:rID>
          <ns2:reportSubject>
            <ns9:endDeviceAsset>
              <ns9:mrid>Thermostat</ns9:mrid>
            </ns9:endDeviceAsset>
          </ns2:reportSubject>
          <ns2:reportDataSource>
            <ns2:venID>VEN090219_124714_657</ns2:venID>
          </ns2:reportDataSource>
          <ns2:reportType>operatingState</ns2:reportType>
          <ns7:customUnit>
            <ns7:itemDescription>Away states</ns7:itemDescription>
            <ns7:itemUnits>0=OFF,1=ON</ns7:itemUnits>
            <ns11:siScaleCode>none</ns11:siScaleCode>
          </ns7:customUnit>
          <ns2:readingType>x-notApplicable</ns2:readingType>
          <ns4:marketContext>http://MarketContext1</ns4:marketContext>
          <ns7:oadrSamplingRate>
            <ns7:oadrMinPeriod>PT1M</ns7:oadrMinPeriod>
            <ns7:oadrMaxPeriod>PT1M</ns7:oadrMaxPeriod>
            <ns7:oadrOnChange>false</ns7:oadrOnChange>
          </ns7:oadrSamplingRate>
        </ns7:oadrReportDescription>
        <ns7:oadrReportDescription>
          <ns2:rID>Current Humidity:rID091219_134555_140_9</ns2:rID>
          <ns2:reportSubject>
            <ns9:endDeviceAsset>
              <ns9:mrid>Thermostat</ns9:mrid>
            </ns9:endDeviceAsset>
          </ns2:reportSubject>
          <ns2:reportDataSource>
            <ns2:venID>VEN090219_124714_657</ns2:venID>
          </ns2:reportDataSource>
          <ns2:reportType>operatingState</ns2:reportType>
          <ns7:customUnit>
            <ns7:itemDescription>Current Humidity</ns7:itemDescription>
            <ns7:itemUnits>percent</ns7:itemUnits>
            <ns11:siScaleCode>none</ns11:siScaleCode>
          </ns7:customUnit>
          <ns2:readingType>x-notApplicable</ns2:readingType>
          <ns4:marketContext>http://MarketContext1</ns4:marketContext>
          <ns7:oadrSamplingRate>
            <ns7:oadrMinPeriod>PT1M</ns7:oadrMinPeriod>
            <ns7:oadrMaxPeriod>PT1M</ns7:oadrMaxPeriod>
            <ns7:oadrOnChange>false</ns7:oadrOnChange>
          </ns7:oadrSamplingRate>
        </ns7:oadrReportDescription>
        <ns2:reportRequestID>0</ns2:reportRequestID>
        <ns2:reportSpecifierID>ReportSpecifierID091219_134549_983_1</ns2:reportSpecifierID>
        <ns2:reportName>METADATA_TELEMETRY_STATUS</ns2:reportName>
        <ns2:createdDateTime>2019-09-12T20:45:49Z</ns2:createdDateTime>
      </ns7:oadrReport>
      <ns2:venID>VEN090219_124714_657</ns2:venID>
    </ns7:oadrRegisterReport>
  </ns7:oadrSignedObject>
</ns7:oadrPayload>

Schema Validation has Passed
Performing OadrRegisterReport Conformance Rule validation

Skipping disabled Conformance Rule ::  Property - RegisterReport_VenReportNameValid_Check :: Description - Check to see if OadrRegisterReport coming from the VEN contains either TELEMETERY_STATUS or TELEMETERY_USAGE metadata report.
Conformance Rule Validation Passed
------------------------------------------

----------------RESPONSE---------------------
Current Time : 2019-09-12T20:46:00Z
<?xml version="1.0" encoding="UTF-8"?>
<ns7:oadrPayload xmlns="http://www.w3.org/2000/09/xmldsig#"
  xmlns:ns10="http://www.opengis.net/gml/3.2"
  xmlns:ns11="http://docs.oasis-open.org/ns/emix/2011/06/siscale"
  xmlns:ns12="http://www.w3.org/2009/xmldsig11#"
  xmlns:ns13="urn:un:unece:uncefact:codelist:standard:5:ISO42173A:2010-04-07"
  xmlns:ns2="http://docs.oasis-open.org/ns/energyinterop/201110"
  xmlns:ns3="http://docs.oasis-open.org/ns/energyinterop/201110/payloads"
  xmlns:ns4="http://docs.oasis-open.org/ns/emix/2011/06"
  xmlns:ns5="urn:ietf:params:xml:ns:icalendar-2.0"
  xmlns:ns6="urn:ietf:params:xml:ns:icalendar-2.0:stream"
  xmlns:ns7="http://openadr.org/oadr-2.0b/2012/07"
  xmlns:ns8="http://www.w3.org/2005/Atom" xmlns:ns9="http://docs.oasis-open.org/ns/emix/2011/06/power">
  <ns7:oadrSignedObject>
    <ns7:oadrRegisteredReport ns2:schemaVersion="2.0b">
      <ns2:eiResponse>
        <ns2:responseCode>200</ns2:responseCode>
        <ns2:responseDescription>OK</ns2:responseDescription>
        <ns3:requestID>RegReq091219_134547_872</ns3:requestID>
      </ns2:eiResponse>
      <ns2:venID>VEN090219_124714_657</ns2:venID>
    </ns7:oadrRegisteredReport>
  </ns7:oadrSignedObject>
</ns7:oadrPayload>

Schema Validation has Passed
Performing OadrRegisteredReport Conformance Rule validation
Conformance Rule Validation Passed
------------------------------------------

-------------HTTP RESPONSE------------------
HTTP Status :OK (200) - The request has succeeded 


-------------HTTP REQUEST-------------------
Current Time : 2019-09-12T20:46:08Z

----Client Address---
127.0.0.1

----Header---
[Accept: */*]
[Connection: keep-alive]
[Pragma: no-cache]
[Cache-Control: no-cache]
[Date: Thu, 12 Sep 2019 20:46:08 GMT]
[User-Agent: Restlet-Framework/2.1snapshot]
[Content-Type: application/xml; charset=UTF-8]
[Content-Length: 951]
[Host: 127.0.0.1:8080]

VEN -> VTN
----------------REQUEST---------------------
Received by TestHarness VTN Service : OadrPoll

<?xml version="1.0" encoding="UTF-8"?>
<ns7:oadrPayload xmlns="http://www.w3.org/2000/09/xmldsig#"
  xmlns:ns10="http://www.opengis.net/gml/3.2"
  xmlns:ns11="http://docs.oasis-open.org/ns/emix/2011/06/siscale"
  xmlns:ns12="http://www.w3.org/2009/xmldsig11#"
  xmlns:ns13="urn:un:unece:uncefact:codelist:standard:5:ISO42173A:2010-04-07"
  xmlns:ns2="http://docs.oasis-open.org/ns/energyinterop/201110"
  xmlns:ns3="http://docs.oasis-open.org/ns/energyinterop/201110/payloads"
  xmlns:ns4="http://docs.oasis-open.org/ns/emix/2011/06"
  xmlns:ns5="urn:ietf:params:xml:ns:icalendar-2.0"
  xmlns:ns6="urn:ietf:params:xml:ns:icalendar-2.0:stream"
  xmlns:ns7="http://openadr.org/oadr-2.0b/2012/07"
  xmlns:ns8="http://www.w3.org/2005/Atom" xmlns:ns9="http://docs.oasis-open.org/ns/emix/2011/06/power">
  <ns7:oadrSignedObject>
    <ns7:oadrPoll ns2:schemaVersion="2.0b">
      <ns2:venID>VEN090219_124714_657</ns2:venID>
    </ns7:oadrPoll>
  </ns7:oadrSignedObject>
</ns7:oadrPayload>

Schema Validation has Passed
Performing OadrPollType Conformance Rule validation
Conformance Rule Validation Passed
------------------------------------------

----------------RESPONSE---------------------
Current Time : 2019-09-12T20:46:09Z
<?xml version="1.0" encoding="UTF-8"?>
<ns7:oadrPayload xmlns="http://www.w3.org/2000/09/xmldsig#"
  xmlns:ns10="http://www.opengis.net/gml/3.2"
  xmlns:ns11="http://docs.oasis-open.org/ns/emix/2011/06/siscale"
  xmlns:ns12="http://www.w3.org/2009/xmldsig11#"
  xmlns:ns13="urn:un:unece:uncefact:codelist:standard:5:ISO42173A:2010-04-07"
  xmlns:ns2="http://docs.oasis-open.org/ns/energyinterop/201110"
  xmlns:ns3="http://docs.oasis-open.org/ns/energyinterop/201110/payloads"
  xmlns:ns4="http://docs.oasis-open.org/ns/emix/2011/06"
  xmlns:ns5="urn:ietf:params:xml:ns:icalendar-2.0"
  xmlns:ns6="urn:ietf:params:xml:ns:icalendar-2.0:stream"
  xmlns:ns7="http://openadr.org/oadr-2.0b/2012/07"
  xmlns:ns8="http://www.w3.org/2005/Atom" xmlns:ns9="http://docs.oasis-open.org/ns/emix/2011/06/power">
  <ns7:oadrSignedObject>
    <ns7:oadrResponse ns2:schemaVersion="2.0b">
      <ns2:eiResponse>
        <ns2:responseCode>200</ns2:responseCode>
        <ns3:requestID/>
      </ns2:eiResponse>
      <ns2:venID>VEN090219_124714_657</ns2:venID>
    </ns7:oadrResponse>
  </ns7:oadrSignedObject>
</ns7:oadrPayload>

Schema Validation has Passed
Performing OadrResponse Conformance Rule validation
Conformance Rule Validation Passed
------------------------------------------

-------------HTTP RESPONSE------------------
HTTP Status :OK (200) - The request has succeeded 


Waiting for user action :Thu Sep 12 13:46:11 PDT 2019
User action received. Playing Test Case again. :Thu Sep 12 13:46:13 PDT 2019

-------------HTTP REQUEST-------------------
Current Time : 2019-09-12T20:46:16Z

----Client Address---
127.0.0.1

----Header---
[Accept: */*]
[Connection: keep-alive]
[Pragma: no-cache]
[Cache-Control: no-cache]
[Date: Thu, 12 Sep 2019 20:46:16 GMT]
[User-Agent: Restlet-Framework/2.1snapshot]
[Content-Type: application/xml; charset=UTF-8]
[Content-Length: 951]
[Host: 127.0.0.1:8080]

VEN -> VTN
----------------REQUEST---------------------
Received by TestHarness VTN Service : OadrPoll

<?xml version="1.0" encoding="UTF-8"?>
<ns7:oadrPayload xmlns="http://www.w3.org/2000/09/xmldsig#"
  xmlns:ns10="http://www.opengis.net/gml/3.2"
  xmlns:ns11="http://docs.oasis-open.org/ns/emix/2011/06/siscale"
  xmlns:ns12="http://www.w3.org/2009/xmldsig11#"
  xmlns:ns13="urn:un:unece:uncefact:codelist:standard:5:ISO42173A:2010-04-07"
  xmlns:ns2="http://docs.oasis-open.org/ns/energyinterop/201110"
  xmlns:ns3="http://docs.oasis-open.org/ns/energyinterop/201110/payloads"
  xmlns:ns4="http://docs.oasis-open.org/ns/emix/2011/06"
  xmlns:ns5="urn:ietf:params:xml:ns:icalendar-2.0"
  xmlns:ns6="urn:ietf:params:xml:ns:icalendar-2.0:stream"
  xmlns:ns7="http://openadr.org/oadr-2.0b/2012/07"
  xmlns:ns8="http://www.w3.org/2005/Atom" xmlns:ns9="http://docs.oasis-open.org/ns/emix/2011/06/power">
  <ns7:oadrSignedObject>
    <ns7:oadrPoll ns2:schemaVersion="2.0b">
      <ns2:venID>VEN090219_124714_657</ns2:venID>
    </ns7:oadrPoll>
  </ns7:oadrSignedObject>
</ns7:oadrPayload>

Schema Validation has Passed
Performing OadrPollType Conformance Rule validation
Conformance Rule Validation Passed
------------------------------------------

----------------RESPONSE---------------------
Current Time : 2019-09-12T20:46:19Z
<?xml version="1.0" encoding="UTF-8"?>
<ns7:oadrPayload xmlns="http://www.w3.org/2000/09/xmldsig#"
  xmlns:ns10="http://www.opengis.net/gml/3.2"
  xmlns:ns11="http://docs.oasis-open.org/ns/emix/2011/06/siscale"
  xmlns:ns12="http://www.w3.org/2009/xmldsig11#"
  xmlns:ns13="urn:un:unece:uncefact:codelist:standard:5:ISO42173A:2010-04-07"
  xmlns:ns2="http://docs.oasis-open.org/ns/energyinterop/201110"
  xmlns:ns3="http://docs.oasis-open.org/ns/energyinterop/201110/payloads"
  xmlns:ns4="http://docs.oasis-open.org/ns/emix/2011/06"
  xmlns:ns5="urn:ietf:params:xml:ns:icalendar-2.0"
  xmlns:ns6="urn:ietf:params:xml:ns:icalendar-2.0:stream"
  xmlns:ns7="http://openadr.org/oadr-2.0b/2012/07"
  xmlns:ns8="http://www.w3.org/2005/Atom" xmlns:ns9="http://docs.oasis-open.org/ns/emix/2011/06/power">
  <ns7:oadrSignedObject>
    <ns7:oadrDistributeEvent ns2:schemaVersion="2.0b">
      <ns2:eiResponse>
        <ns2:responseCode>200</ns2:responseCode>
        <ns2:responseDescription>OK</ns2:responseDescription>
        <ns3:requestID/>
      </ns2:eiResponse>
      <ns3:requestID>OadrDisReq091219_134618_884</ns3:requestID>
      <ns2:vtnID>TH_VTN</ns2:vtnID>
      <ns7:oadrEvent>
        <ns2:eiEvent>
          <ns2:eventDescriptor>
            <ns2:eventID>Event091219_134619_385_0</ns2:eventID>
            <ns2:modificationNumber>0</ns2:modificationNumber>
            <ns2:priority>1</ns2:priority>
            <ns2:eiMarketContext>
              <ns4:marketContext>http://MarketContext1</ns4:marketContext>
            </ns2:eiMarketContext>
            <ns2:createdDateTime>2019-09-12T20:46:18Z</ns2:createdDateTime>
            <ns2:eventStatus>far</ns2:eventStatus>
          </ns2:eventDescriptor>
          <ns2:eiActivePeriod>
            <ns5:properties>
              <ns5:dtstart>
                <ns5:date-time>2019-09-12T20:47:19Z</ns5:date-time>
              </ns5:dtstart>
              <ns5:duration>
                <ns5:duration>PT2M</ns5:duration>
              </ns5:duration>
              <ns5:tolerance>
                <ns5:tolerate>
                  <ns5:startafter>PT1M</ns5:startafter>
                </ns5:tolerate>
              </ns5:tolerance>
              <ns2:x-eiNotification>
                <ns5:duration>PT1M</ns5:duration>
              </ns2:x-eiNotification>
            </ns5:properties>
            <ns5:components xmlns:atom="http://www.w3.org/2005/Atom"
              xmlns:ds="http://www.w3.org/2000/09/xmldsig#"
              xmlns:ei="http://docs.oasis-open.org/ns/energyinterop/201110"
              xmlns:emix="http://docs.oasis-open.org/ns/emix/2011/06"
              xmlns:gml="http://www.opengis.net/gml/3.2"
              xmlns:n2="http://www.altova.com/samplexml/other-namespace"
              xmlns:oadr="http://openadr.org/oadr-2.0b/2012/07"
              xmlns:power="http://docs.oasis-open.org/ns/emix/2011/06/power"
              xmlns:pyld="http://docs.oasis-open.org/ns/energyinterop/201110/payloads"
              xmlns:scale="http://docs.oasis-open.org/ns/emix/2011/06/siscale"
              xmlns:strm="urn:ietf:params:xml:ns:icalendar-2.0:stream"
              xmlns:xcal="urn:ietf:params:xml:ns:icalendar-2.0" xmlns:xsi="http://www.w3.org/2001/XMLSchema-instance"/>
          </ns2:eiActivePeriod>
          <ns2:eiEventSignals>
            <ns2:eiEventSignal>
              <ns6:intervals>
                <ns2:interval>
                  <ns5:duration>
                    <ns5:duration>PT2M</ns5:duration>
                  </ns5:duration>
                  <ns5:uid>
                    <ns5:text>0</ns5:text>
                  </ns5:uid>
                  <ns2:signalPayload>
                    <ns2:payloadFloat>
                      <ns2:value>1.0</ns2:value>
                    </ns2:payloadFloat>
                  </ns2:signalPayload>
                </ns2:interval>
              </ns6:intervals>
              <ns2:signalName>SIMPLE</ns2:signalName>
              <ns2:signalType>level</ns2:signalType>
              <ns2:signalID>SIG_01</ns2:signalID>
            </ns2:eiEventSignal>
            <ns2:eiEventSignal>
              <ns6:intervals>
                <ns2:interval>
                  <ns5:duration>
                    <ns5:duration>PT2M</ns5:duration>
                  </ns5:duration>
                  <ns5:uid>
                    <ns5:text>0</ns5:text>
                  </ns5:uid>
                  <ns2:signalPayload>
                    <ns2:payloadFloat>
                      <ns2:value>2.0</ns2:value>
                    </ns2:payloadFloat>
                  </ns2:signalPayload>
                </ns2:interval>
              </ns6:intervals>
              <ns2:signalName>LOAD_CONTROL</ns2:signalName>
              <ns2:signalType>x-loadControlLevelOffset</ns2:signalType>
              <ns2:signalID>SIG_02</ns2:signalID>
              <ns7:temperature>
                <ns7:itemDescription>temperature</ns7:itemDescription>
                <ns7:itemUnits>fahrenheit</ns7:itemUnits>
                <ns11:siScaleCode>none</ns11:siScaleCode>
              </ns7:temperature>
            </ns2:eiEventSignal>
          </ns2:eiEventSignals>
          <ns2:eiTarget>
            <ns2:resourceID>resource1</ns2:resourceID>
            <ns2:resourceID>resource2</ns2:resourceID>
          </ns2:eiTarget>
        </ns2:eiEvent>
        <ns7:oadrResponseRequired>always</ns7:oadrResponseRequired>
      </ns7:oadrEvent>
    </ns7:oadrDistributeEvent>
  </ns7:oadrSignedObject>
</ns7:oadrPayload>

Schema Validation has Passed
Performing OadrDistributeEvent Conformance Rule validation
Conformance Rule Validation Passed
------------------------------------------

-------------HTTP RESPONSE------------------
HTTP Status :OK (200) - The request has succeeded 


-------------HTTP REQUEST-------------------
Current Time : 2019-09-12T20:46:24Z

----Client Address---
127.0.0.1

----Header---
[Accept: */*]
[Connection: keep-alive]
[Pragma: no-cache]
[Cache-Control: no-cache]
[Date: Thu, 12 Sep 2019 20:46:24 GMT]
[User-Agent: Restlet-Framework/2.1snapshot]
[Content-Type: application/xml; charset=UTF-8]
[Content-Length: 1468]
[Host: 127.0.0.1:8080]

VEN -> VTN
----------------REQUEST---------------------
Received by TestHarness VTN Service : EiEvent

<?xml version="1.0" encoding="UTF-8"?>
<ns7:oadrPayload xmlns="http://www.w3.org/2000/09/xmldsig#"
  xmlns:ns10="http://www.opengis.net/gml/3.2"
  xmlns:ns11="http://docs.oasis-open.org/ns/emix/2011/06/siscale"
  xmlns:ns12="http://www.w3.org/2009/xmldsig11#"
  xmlns:ns13="urn:un:unece:uncefact:codelist:standard:5:ISO42173A:2010-04-07"
  xmlns:ns2="http://docs.oasis-open.org/ns/energyinterop/201110"
  xmlns:ns3="http://docs.oasis-open.org/ns/energyinterop/201110/payloads"
  xmlns:ns4="http://docs.oasis-open.org/ns/emix/2011/06"
  xmlns:ns5="urn:ietf:params:xml:ns:icalendar-2.0"
  xmlns:ns6="urn:ietf:params:xml:ns:icalendar-2.0:stream"
  xmlns:ns7="http://openadr.org/oadr-2.0b/2012/07"
  xmlns:ns8="http://www.w3.org/2005/Atom" xmlns:ns9="http://docs.oasis-open.org/ns/emix/2011/06/power">
  <ns7:oadrSignedObject>
    <ns7:oadrCreatedEvent ns2:schemaVersion="2.0b">
      <ns3:eiCreatedEvent>
        <ns2:eiResponse>
          <ns2:responseCode>200</ns2:responseCode>
          <ns3:requestID/>
        </ns2:eiResponse>
        <ns2:eventResponses>
          <ns2:eventResponse>
            <ns2:responseCode>200</ns2:responseCode>
            <ns3:requestID>OadrDisReq091219_134618_884</ns3:requestID>
            <ns2:qualifiedEventID>
              <ns2:eventID>Event091219_134619_385_0</ns2:eventID>
              <ns2:modificationNumber>0</ns2:modificationNumber>
            </ns2:qualifiedEventID>
            <ns2:optType>optIn</ns2:optType>
          </ns2:eventResponse>
        </ns2:eventResponses>
        <ns2:venID>VEN090219_124714_657</ns2:venID>
      </ns3:eiCreatedEvent>
    </ns7:oadrCreatedEvent>
  </ns7:oadrSignedObject>
</ns7:oadrPayload>

Schema Validation has Passed
Performing OadrCreatedEventType Conformance Rule validation
Conformance Rule Validation Passed
------------------------------------------

----------------RESPONSE---------------------
Current Time : 2019-09-12T20:46:25Z
<?xml version="1.0" encoding="UTF-8"?>
<ns7:oadrPayload xmlns="http://www.w3.org/2000/09/xmldsig#"
  xmlns:ns10="http://www.opengis.net/gml/3.2"
  xmlns:ns11="http://docs.oasis-open.org/ns/emix/2011/06/siscale"
  xmlns:ns12="http://www.w3.org/2009/xmldsig11#"
  xmlns:ns13="urn:un:unece:uncefact:codelist:standard:5:ISO42173A:2010-04-07"
  xmlns:ns2="http://docs.oasis-open.org/ns/energyinterop/201110"
  xmlns:ns3="http://docs.oasis-open.org/ns/energyinterop/201110/payloads"
  xmlns:ns4="http://docs.oasis-open.org/ns/emix/2011/06"
  xmlns:ns5="urn:ietf:params:xml:ns:icalendar-2.0"
  xmlns:ns6="urn:ietf:params:xml:ns:icalendar-2.0:stream"
  xmlns:ns7="http://openadr.org/oadr-2.0b/2012/07"
  xmlns:ns8="http://www.w3.org/2005/Atom" xmlns:ns9="http://docs.oasis-open.org/ns/emix/2011/06/power">
  <ns7:oadrSignedObject>
    <ns7:oadrResponse ns2:schemaVersion="2.0b">
      <ns2:eiResponse>
        <ns2:responseCode>200</ns2:responseCode>
        <ns3:requestID/>
      </ns2:eiResponse>
      <ns2:venID>VEN090219_124714_657</ns2:venID>
    </ns7:oadrResponse>
  </ns7:oadrSignedObject>
</ns7:oadrPayload>

Schema Validation has Passed
Performing OadrResponse Conformance Rule validation
Conformance Rule Validation Passed
------------------------------------------

-------------HTTP RESPONSE------------------
HTTP Status :OK (200) - The request has succeeded 


-------------HTTP REQUEST-------------------
Current Time : 2019-09-12T20:46:32Z

----Client Address---
127.0.0.1

----Header---
[Accept: */*]
[Connection: keep-alive]
[Pragma: no-cache]
[Cache-Control: no-cache]
[Date: Thu, 12 Sep 2019 20:46:32 GMT]
[User-Agent: Restlet-Framework/2.1snapshot]
[Content-Type: application/xml; charset=UTF-8]
[Content-Length: 951]
[Host: 127.0.0.1:8080]

VEN -> VTN
----------------REQUEST---------------------
Received by TestHarness VTN Service : OadrPoll

<?xml version="1.0" encoding="UTF-8"?>
<ns7:oadrPayload xmlns="http://www.w3.org/2000/09/xmldsig#"
  xmlns:ns10="http://www.opengis.net/gml/3.2"
  xmlns:ns11="http://docs.oasis-open.org/ns/emix/2011/06/siscale"
  xmlns:ns12="http://www.w3.org/2009/xmldsig11#"
  xmlns:ns13="urn:un:unece:uncefact:codelist:standard:5:ISO42173A:2010-04-07"
  xmlns:ns2="http://docs.oasis-open.org/ns/energyinterop/201110"
  xmlns:ns3="http://docs.oasis-open.org/ns/energyinterop/201110/payloads"
  xmlns:ns4="http://docs.oasis-open.org/ns/emix/2011/06"
  xmlns:ns5="urn:ietf:params:xml:ns:icalendar-2.0"
  xmlns:ns6="urn:ietf:params:xml:ns:icalendar-2.0:stream"
  xmlns:ns7="http://openadr.org/oadr-2.0b/2012/07"
  xmlns:ns8="http://www.w3.org/2005/Atom" xmlns:ns9="http://docs.oasis-open.org/ns/emix/2011/06/power">
  <ns7:oadrSignedObject>
    <ns7:oadrPoll ns2:schemaVersion="2.0b">
      <ns2:venID>VEN090219_124714_657</ns2:venID>
    </ns7:oadrPoll>
  </ns7:oadrSignedObject>
</ns7:oadrPayload>

Schema Validation has Passed
Performing OadrPollType Conformance Rule validation
Conformance Rule Validation Passed
------------------------------------------

----------------RESPONSE---------------------
Current Time : 2019-09-12T20:46:34Z
<?xml version="1.0" encoding="UTF-8"?>
<ns7:oadrPayload xmlns="http://www.w3.org/2000/09/xmldsig#"
  xmlns:ns10="http://www.opengis.net/gml/3.2"
  xmlns:ns11="http://docs.oasis-open.org/ns/emix/2011/06/siscale"
  xmlns:ns12="http://www.w3.org/2009/xmldsig11#"
  xmlns:ns13="urn:un:unece:uncefact:codelist:standard:5:ISO42173A:2010-04-07"
  xmlns:ns2="http://docs.oasis-open.org/ns/energyinterop/201110"
  xmlns:ns3="http://docs.oasis-open.org/ns/energyinterop/201110/payloads"
  xmlns:ns4="http://docs.oasis-open.org/ns/emix/2011/06"
  xmlns:ns5="urn:ietf:params:xml:ns:icalendar-2.0"
  xmlns:ns6="urn:ietf:params:xml:ns:icalendar-2.0:stream"
  xmlns:ns7="http://openadr.org/oadr-2.0b/2012/07"
  xmlns:ns8="http://www.w3.org/2005/Atom" xmlns:ns9="http://docs.oasis-open.org/ns/emix/2011/06/power">
  <ns7:oadrSignedObject>
    <ns7:oadrResponse ns2:schemaVersion="2.0b">
      <ns2:eiResponse>
        <ns2:responseCode>200</ns2:responseCode>
        <ns3:requestID/>
      </ns2:eiResponse>
      <ns2:venID>VEN090219_124714_657</ns2:venID>
    </ns7:oadrResponse>
  </ns7:oadrSignedObject>
</ns7:oadrPayload>

Schema Validation has Passed
Performing OadrResponse Conformance Rule validation
Conformance Rule Validation Passed
------------------------------------------

-------------HTTP RESPONSE------------------
HTTP Status :OK (200) - The request has succeeded 


Waiting for user action :Thu Sep 12 13:46:35 PDT 2019
User action received. Playing Test Case again. :Thu Sep 12 13:46:37 PDT 2019

The test case is pausing for about 100 seconds

-------------HTTP REQUEST-------------------
Current Time : 2019-09-12T20:46:41Z

----Client Address---
127.0.0.1

----Header---
[Accept: */*]
[Connection: keep-alive]
[Pragma: no-cache]
[Cache-Control: no-cache]
[Date: Thu, 12 Sep 2019 20:46:41 GMT]
[User-Agent: Restlet-Framework/2.1snapshot]
[Content-Type: application/xml; charset=UTF-8]
[Content-Length: 951]
[Host: 127.0.0.1:8080]

VEN -> VTN
----------------REQUEST---------------------
Received by TestHarness VTN Service : OadrPoll

<?xml version="1.0" encoding="UTF-8"?>
<ns7:oadrPayload xmlns="http://www.w3.org/2000/09/xmldsig#"
  xmlns:ns10="http://www.opengis.net/gml/3.2"
  xmlns:ns11="http://docs.oasis-open.org/ns/emix/2011/06/siscale"
  xmlns:ns12="http://www.w3.org/2009/xmldsig11#"
  xmlns:ns13="urn:un:unece:uncefact:codelist:standard:5:ISO42173A:2010-04-07"
  xmlns:ns2="http://docs.oasis-open.org/ns/energyinterop/201110"
  xmlns:ns3="http://docs.oasis-open.org/ns/energyinterop/201110/payloads"
  xmlns:ns4="http://docs.oasis-open.org/ns/emix/2011/06"
  xmlns:ns5="urn:ietf:params:xml:ns:icalendar-2.0"
  xmlns:ns6="urn:ietf:params:xml:ns:icalendar-2.0:stream"
  xmlns:ns7="http://openadr.org/oadr-2.0b/2012/07"
  xmlns:ns8="http://www.w3.org/2005/Atom" xmlns:ns9="http://docs.oasis-open.org/ns/emix/2011/06/power">
  <ns7:oadrSignedObject>
    <ns7:oadrPoll ns2:schemaVersion="2.0b">
      <ns2:venID>VEN090219_124714_657</ns2:venID>
    </ns7:oadrPoll>
  </ns7:oadrSignedObject>
</ns7:oadrPayload>

Schema Validation has Passed
Performing OadrPollType Conformance Rule validation
Conformance Rule Validation Passed
------------------------------------------

----------------RESPONSE---------------------
Current Time : 2019-09-12T20:46:43Z
<?xml version="1.0" encoding="UTF-8"?>
<ns7:oadrPayload xmlns="http://www.w3.org/2000/09/xmldsig#"
  xmlns:ns10="http://www.opengis.net/gml/3.2"
  xmlns:ns11="http://docs.oasis-open.org/ns/emix/2011/06/siscale"
  xmlns:ns12="http://www.w3.org/2009/xmldsig11#"
  xmlns:ns13="urn:un:unece:uncefact:codelist:standard:5:ISO42173A:2010-04-07"
  xmlns:ns2="http://docs.oasis-open.org/ns/energyinterop/201110"
  xmlns:ns3="http://docs.oasis-open.org/ns/energyinterop/201110/payloads"
  xmlns:ns4="http://docs.oasis-open.org/ns/emix/2011/06"
  xmlns:ns5="urn:ietf:params:xml:ns:icalendar-2.0"
  xmlns:ns6="urn:ietf:params:xml:ns:icalendar-2.0:stream"
  xmlns:ns7="http://openadr.org/oadr-2.0b/2012/07"
  xmlns:ns8="http://www.w3.org/2005/Atom" xmlns:ns9="http://docs.oasis-open.org/ns/emix/2011/06/power">
  <ns7:oadrSignedObject>
    <ns7:oadrCreateReport ns2:schemaVersion="2.0b">
      <ns3:requestID>ReportReqID091219_134643_031</ns3:requestID>
      <ns7:oadrReportRequest>
        <ns2:reportRequestID>ReportReqID091219_134643_531</ns2:reportRequestID>
        <ns2:reportSpecifier>
          <ns2:reportSpecifierID>ReportSpecifierID091219_134549_983_1</ns2:reportSpecifierID>
          <ns5:granularity>
            <ns5:duration>PT1M</ns5:duration>
          </ns5:granularity>
          <ns2:reportBackDuration>
            <ns5:duration>PT1M</ns5:duration>
          </ns2:reportBackDuration>
          <ns2:reportInterval>
            <ns5:properties>
              <ns5:dtstart>
                <ns5:date-time>2019-09-12T20:46:43Z</ns5:date-time>
              </ns5:dtstart>
              <ns5:duration>
                <ns5:duration>PT5M</ns5:duration>
              </ns5:duration>
            </ns5:properties>
          </ns2:reportInterval>
          <ns2:specifierPayload>
            <ns2:rID>Status:rID091219_134550_504_0</ns2:rID>
            <ns2:readingType>x-notApplicable</ns2:readingType>
          </ns2:specifierPayload>
          <ns2:specifierPayload>
            <ns2:rID>Current Temp:rID091219_134551_010_1</ns2:rID>
            <ns2:readingType>x-notApplicable</ns2:readingType>
          </ns2:specifierPayload>
          <ns2:specifierPayload>
            <ns2:rID>Heat Temp Setting:rID091219_134551_534_2</ns2:rID>
            <ns2:readingType>x-notApplicable</ns2:readingType>
          </ns2:specifierPayload>
          <ns2:specifierPayload>
            <ns2:rID>Cool Temp Setting:rID091219_134552_049_3</ns2:rID>
            <ns2:readingType>x-notApplicable</ns2:readingType>
          </ns2:specifierPayload>
          <ns2:specifierPayload>
            <ns2:rID>HVAC Mode Setting:rID091219_134552_564_4</ns2:rID>
            <ns2:readingType>x-notApplicable</ns2:readingType>
          </ns2:specifierPayload>
          <ns2:specifierPayload>
            <ns2:rID>Current HVAC Mode:rID091219_134553_085_5</ns2:rID>
            <ns2:readingType>x-notApplicable</ns2:readingType>
          </ns2:specifierPayload>
          <ns2:specifierPayload>
            <ns2:rID>Fan Mode Setting:rID091219_134553_593_6</ns2:rID>
            <ns2:readingType>x-notApplicable</ns2:readingType>
          </ns2:specifierPayload>
          <ns2:specifierPayload>
            <ns2:rID>Current Hold Mode:rID091219_134554_111_7</ns2:rID>
            <ns2:readingType>x-notApplicable</ns2:readingType>
          </ns2:specifierPayload>
          <ns2:specifierPayload>
            <ns2:rID>Current Away Mode:rID091219_134554_627_8</ns2:rID>
            <ns2:readingType>x-notApplicable</ns2:readingType>
          </ns2:specifierPayload>
          <ns2:specifierPayload>
            <ns2:rID>Current Humidity:rID091219_134555_140_9</ns2:rID>
            <ns2:readingType>x-notApplicable</ns2:readingType>
          </ns2:specifierPayload>
        </ns2:reportSpecifier>
      </ns7:oadrReportRequest>
      <ns2:venID>VEN090219_124714_657</ns2:venID>
    </ns7:oadrCreateReport>
  </ns7:oadrSignedObject>
</ns7:oadrPayload>

Schema Validation has Passed
Performing OadrCreateReport Conformance Rule validation
Conformance Rule Validation Passed
------------------------------------------

-------------HTTP RESPONSE------------------
HTTP Status :OK (200) - The request has succeeded 


-------------HTTP REQUEST-------------------
Current Time : 2019-09-12T20:46:48Z

----Client Address---
127.0.0.1

----Header---
[Accept: */*]
[Connection: keep-alive]
[Pragma: no-cache]
[Cache-Control: no-cache]
[Date: Thu, 12 Sep 2019 20:46:48 GMT]
[User-Agent: Restlet-Framework/2.1snapshot]
[Content-Type: application/xml; charset=UTF-8]
[Content-Length: 951]
[Host: 127.0.0.1:8080]

VEN -> VTN
----------------REQUEST---------------------
Received by TestHarness VTN Service : OadrPoll

<?xml version="1.0" encoding="UTF-8"?>
<ns7:oadrPayload xmlns="http://www.w3.org/2000/09/xmldsig#"
  xmlns:ns10="http://www.opengis.net/gml/3.2"
  xmlns:ns11="http://docs.oasis-open.org/ns/emix/2011/06/siscale"
  xmlns:ns12="http://www.w3.org/2009/xmldsig11#"
  xmlns:ns13="urn:un:unece:uncefact:codelist:standard:5:ISO42173A:2010-04-07"
  xmlns:ns2="http://docs.oasis-open.org/ns/energyinterop/201110"
  xmlns:ns3="http://docs.oasis-open.org/ns/energyinterop/201110/payloads"
  xmlns:ns4="http://docs.oasis-open.org/ns/emix/2011/06"
  xmlns:ns5="urn:ietf:params:xml:ns:icalendar-2.0"
  xmlns:ns6="urn:ietf:params:xml:ns:icalendar-2.0:stream"
  xmlns:ns7="http://openadr.org/oadr-2.0b/2012/07"
  xmlns:ns8="http://www.w3.org/2005/Atom" xmlns:ns9="http://docs.oasis-open.org/ns/emix/2011/06/power">
  <ns7:oadrSignedObject>
    <ns7:oadrPoll ns2:schemaVersion="2.0b">
      <ns2:venID>VEN090219_124714_657</ns2:venID>
    </ns7:oadrPoll>
  </ns7:oadrSignedObject>
</ns7:oadrPayload>

Schema Validation has Passed
Performing OadrPollType Conformance Rule validation
Conformance Rule Validation Passed
------------------------------------------

----------------RESPONSE---------------------
Current Time : 2019-09-12T20:46:49Z
<?xml version="1.0" encoding="UTF-8"?>
<ns7:oadrPayload xmlns="http://www.w3.org/2000/09/xmldsig#"
  xmlns:ns10="http://www.opengis.net/gml/3.2"
  xmlns:ns11="http://docs.oasis-open.org/ns/emix/2011/06/siscale"
  xmlns:ns12="http://www.w3.org/2009/xmldsig11#"
  xmlns:ns13="urn:un:unece:uncefact:codelist:standard:5:ISO42173A:2010-04-07"
  xmlns:ns2="http://docs.oasis-open.org/ns/energyinterop/201110"
  xmlns:ns3="http://docs.oasis-open.org/ns/energyinterop/201110/payloads"
  xmlns:ns4="http://docs.oasis-open.org/ns/emix/2011/06"
  xmlns:ns5="urn:ietf:params:xml:ns:icalendar-2.0"
  xmlns:ns6="urn:ietf:params:xml:ns:icalendar-2.0:stream"
  xmlns:ns7="http://openadr.org/oadr-2.0b/2012/07"
  xmlns:ns8="http://www.w3.org/2005/Atom" xmlns:ns9="http://docs.oasis-open.org/ns/emix/2011/06/power">
  <ns7:oadrSignedObject>
    <ns7:oadrResponse ns2:schemaVersion="2.0b">
      <ns2:eiResponse>
        <ns2:responseCode>200</ns2:responseCode>
        <ns3:requestID/>
      </ns2:eiResponse>
      <ns2:venID>VEN090219_124714_657</ns2:venID>
    </ns7:oadrResponse>
  </ns7:oadrSignedObject>
</ns7:oadrPayload>

Schema Validation has Passed
Performing OadrResponse Conformance Rule validation
Conformance Rule Validation Passed
------------------------------------------

-------------HTTP RESPONSE------------------
HTTP Status :OK (200) - The request has succeeded 


-------------HTTP REQUEST-------------------
Current Time : 2019-09-12T20:46:54Z

----Client Address---
127.0.0.1

----Header---
[Accept: */*]
[Connection: keep-alive]
[Pragma: no-cache]
[Cache-Control: no-cache]
[Date: Thu, 12 Sep 2019 20:46:54 GMT]
[User-Agent: Restlet-Framework/2.1snapshot]
[Content-Type: application/xml; charset=UTF-8]
[Content-Length: 1274]
[Host: 127.0.0.1:8080]

VEN -> VTN
----------------REQUEST---------------------
Received by TestHarness VTN Service : EiReport

<?xml version="1.0" encoding="UTF-8"?>
<ns7:oadrPayload xmlns="http://www.w3.org/2000/09/xmldsig#"
  xmlns:ns10="http://www.opengis.net/gml/3.2"
  xmlns:ns11="http://docs.oasis-open.org/ns/emix/2011/06/siscale"
  xmlns:ns12="http://www.w3.org/2009/xmldsig11#"
  xmlns:ns13="urn:un:unece:uncefact:codelist:standard:5:ISO42173A:2010-04-07"
  xmlns:ns2="http://docs.oasis-open.org/ns/energyinterop/201110"
  xmlns:ns3="http://docs.oasis-open.org/ns/energyinterop/201110/payloads"
  xmlns:ns4="http://docs.oasis-open.org/ns/emix/2011/06"
  xmlns:ns5="urn:ietf:params:xml:ns:icalendar-2.0"
  xmlns:ns6="urn:ietf:params:xml:ns:icalendar-2.0:stream"
  xmlns:ns7="http://openadr.org/oadr-2.0b/2012/07"
  xmlns:ns8="http://www.w3.org/2005/Atom" xmlns:ns9="http://docs.oasis-open.org/ns/emix/2011/06/power">
  <ns7:oadrSignedObject>
    <ns7:oadrCreatedReport ns2:schemaVersion="2.0b">
      <ns2:eiResponse>
        <ns2:responseCode>200</ns2:responseCode>
        <ns2:responseDescription>OK</ns2:responseDescription>
        <ns3:requestID>ReportReqID091219_134643_031</ns3:requestID>
      </ns2:eiResponse>
      <ns7:oadrPendingReports>
        <ns2:reportRequestID>ReportReqID091219_134643_531</ns2:reportRequestID>
      </ns7:oadrPendingReports>
      <ns2:venID>VEN090219_124714_657</ns2:venID>
    </ns7:oadrCreatedReport>
  </ns7:oadrSignedObject>
</ns7:oadrPayload>

Schema Validation has Passed
Performing OadrCreatedReport Conformance Rule validation
Conformance Rule Validation Passed
------------------------------------------

----------------RESPONSE---------------------
Current Time : 2019-09-12T20:46:55Z
<?xml version="1.0" encoding="UTF-8"?>
<ns7:oadrPayload xmlns="http://www.w3.org/2000/09/xmldsig#"
  xmlns:ns10="http://www.opengis.net/gml/3.2"
  xmlns:ns11="http://docs.oasis-open.org/ns/emix/2011/06/siscale"
  xmlns:ns12="http://www.w3.org/2009/xmldsig11#"
  xmlns:ns13="urn:un:unece:uncefact:codelist:standard:5:ISO42173A:2010-04-07"
  xmlns:ns2="http://docs.oasis-open.org/ns/energyinterop/201110"
  xmlns:ns3="http://docs.oasis-open.org/ns/energyinterop/201110/payloads"
  xmlns:ns4="http://docs.oasis-open.org/ns/emix/2011/06"
  xmlns:ns5="urn:ietf:params:xml:ns:icalendar-2.0"
  xmlns:ns6="urn:ietf:params:xml:ns:icalendar-2.0:stream"
  xmlns:ns7="http://openadr.org/oadr-2.0b/2012/07"
  xmlns:ns8="http://www.w3.org/2005/Atom" xmlns:ns9="http://docs.oasis-open.org/ns/emix/2011/06/power">
  <ns7:oadrSignedObject>
    <ns7:oadrResponse ns2:schemaVersion="2.0b">
      <ns2:eiResponse>
        <ns2:responseCode>200</ns2:responseCode>
        <ns3:requestID/>
      </ns2:eiResponse>
      <ns2:venID>VEN090219_124714_657</ns2:venID>
    </ns7:oadrResponse>
  </ns7:oadrSignedObject>
</ns7:oadrPayload>

Schema Validation has Passed
Performing OadrResponse Conformance Rule validation
Conformance Rule Validation Passed
------------------------------------------

-------------HTTP RESPONSE------------------
HTTP Status :OK (200) - The request has succeeded 


-------------HTTP REQUEST-------------------
Current Time : 2019-09-12T20:47:00Z

----Client Address---
127.0.0.1

----Header---
[Accept: */*]
[Connection: keep-alive]
[Pragma: no-cache]
[Cache-Control: no-cache]
[Date: Thu, 12 Sep 2019 20:47:00 GMT]
[User-Agent: Restlet-Framework/2.1snapshot]
[Content-Type: application/xml; charset=UTF-8]
[Content-Length: 4728]
[Host: 127.0.0.1:8080]

VEN -> VTN
----------------REQUEST---------------------
Received by TestHarness VTN Service : EiReport

<?xml version="1.0" encoding="UTF-8"?>
<ns7:oadrPayload xmlns="http://www.w3.org/2000/09/xmldsig#"
  xmlns:ns10="http://www.opengis.net/gml/3.2"
  xmlns:ns11="http://docs.oasis-open.org/ns/emix/2011/06/siscale"
  xmlns:ns12="http://www.w3.org/2009/xmldsig11#"
  xmlns:ns13="urn:un:unece:uncefact:codelist:standard:5:ISO42173A:2010-04-07"
  xmlns:ns2="http://docs.oasis-open.org/ns/energyinterop/201110"
  xmlns:ns3="http://docs.oasis-open.org/ns/energyinterop/201110/payloads"
  xmlns:ns4="http://docs.oasis-open.org/ns/emix/2011/06"
  xmlns:ns5="urn:ietf:params:xml:ns:icalendar-2.0"
  xmlns:ns6="urn:ietf:params:xml:ns:icalendar-2.0:stream"
  xmlns:ns7="http://openadr.org/oadr-2.0b/2012/07"
  xmlns:ns8="http://www.w3.org/2005/Atom" xmlns:ns9="http://docs.oasis-open.org/ns/emix/2011/06/power">
  <ns7:oadrSignedObject>
    <ns7:oadrUpdateReport ns2:schemaVersion="2.0b">
      <ns3:requestID>ReportUpdReqID091219_134659_027</ns3:requestID>
      <ns7:oadrReport>
        <ns5:dtstart>
          <ns5:date-time>2019-09-12T20:46:58Z</ns5:date-time>
        </ns5:dtstart>
        <ns6:intervals>
          <ns2:interval>
            <ns5:dtstart>
              <ns5:date-time>2019-09-12T20:46:58Z</ns5:date-time>
            </ns5:dtstart>
            <ns7:oadrReportPayload>
              <ns2:rID>Status:rID091219_134550_504_0</ns2:rID>
              <ns7:oadrPayloadResourceStatus>
                <ns7:oadrOnline>true</ns7:oadrOnline>
                <ns7:oadrManualOverride>false</ns7:oadrManualOverride>
                <ns7:oadrLoadControlState>
                  <ns7:oadrLevelOffset>
                    <ns7:oadrCurrent>0.0</ns7:oadrCurrent>
                  </ns7:oadrLevelOffset>
                </ns7:oadrLoadControlState>
              </ns7:oadrPayloadResourceStatus>
            </ns7:oadrReportPayload>
            <ns7:oadrReportPayload>
              <ns2:rID>Current Temp:rID091219_134551_010_1</ns2:rID>
              <ns2:confidence>100</ns2:confidence>
              <ns2:accuracy>0.0</ns2:accuracy>
              <ns2:payloadFloat>
                <ns2:value>61.0</ns2:value>
              </ns2:payloadFloat>
              <ns7:oadrDataQuality>Quality Good - Non Specific</ns7:oadrDataQuality>
            </ns7:oadrReportPayload>
            <ns7:oadrReportPayload>
              <ns2:rID>Heat Temp Setting:rID091219_134551_534_2</ns2:rID>
              <ns2:confidence>100</ns2:confidence>
              <ns2:accuracy>0.0</ns2:accuracy>
              <ns2:payloadFloat>
                <ns2:value>80.0</ns2:value>
              </ns2:payloadFloat>
              <ns7:oadrDataQuality>Quality Good - Non Specific</ns7:oadrDataQuality>
            </ns7:oadrReportPayload>
            <ns7:oadrReportPayload>
              <ns2:rID>Cool Temp Setting:rID091219_134552_049_3</ns2:rID>
              <ns2:confidence>100</ns2:confidence>
              <ns2:accuracy>0.0</ns2:accuracy>
              <ns2:payloadFloat>
                <ns2:value>75.0</ns2:value>
              </ns2:payloadFloat>
              <ns7:oadrDataQuality>Quality Good - Non Specific</ns7:oadrDataQuality>
            </ns7:oadrReportPayload>
            <ns7:oadrReportPayload>
              <ns2:rID>HVAC Mode Setting:rID091219_134552_564_4</ns2:rID>
              <ns2:confidence>100</ns2:confidence>
              <ns2:accuracy>0.0</ns2:accuracy>
              <ns2:payloadFloat>
                <ns2:value>2.0</ns2:value>
              </ns2:payloadFloat>
              <ns7:oadrDataQuality>Quality Good - Non Specific</ns7:oadrDataQuality>
            </ns7:oadrReportPayload>
            <ns7:oadrReportPayload>
              <ns2:rID>Current HVAC Mode:rID091219_134553_085_5</ns2:rID>
              <ns2:confidence>100</ns2:confidence>
              <ns2:accuracy>0.0</ns2:accuracy>
              <ns2:payloadFloat>
                <ns2:value>2.0</ns2:value>
              </ns2:payloadFloat>
              <ns7:oadrDataQuality>Quality Good - Non Specific</ns7:oadrDataQuality>
            </ns7:oadrReportPayload>
            <ns7:oadrReportPayload>
              <ns2:rID>Fan Mode Setting:rID091219_134553_593_6</ns2:rID>
              <ns2:confidence>100</ns2:confidence>
              <ns2:accuracy>0.0</ns2:accuracy>
              <ns2:payloadFloat>
                <ns2:value>1.0</ns2:value>
              </ns2:payloadFloat>
              <ns7:oadrDataQuality>Quality Good - Non Specific</ns7:oadrDataQuality>
            </ns7:oadrReportPayload>
            <ns7:oadrReportPayload>
              <ns2:rID>Current Hold Mode:rID091219_134554_111_7</ns2:rID>
              <ns2:confidence>100</ns2:confidence>
              <ns2:accuracy>0.0</ns2:accuracy>
              <ns2:payloadFloat>
                <ns2:value>1.0</ns2:value>
              </ns2:payloadFloat>
              <ns7:oadrDataQuality>Quality Good - Non Specific</ns7:oadrDataQuality>
            </ns7:oadrReportPayload>
            <ns7:oadrReportPayload>
              <ns2:rID>Current Away Mode:rID091219_134554_627_8</ns2:rID>
              <ns2:confidence>100</ns2:confidence>
              <ns2:accuracy>0.0</ns2:accuracy>
              <ns2:payloadFloat>
                <ns2:value>0.0</ns2:value>
              </ns2:payloadFloat>
              <ns7:oadrDataQuality>Quality Good - Non Specific</ns7:oadrDataQuality>
            </ns7:oadrReportPayload>
            <ns7:oadrReportPayload>
              <ns2:rID>Current Humidity:rID091219_134555_140_9</ns2:rID>
              <ns2:confidence>100</ns2:confidence>
              <ns2:accuracy>0.0</ns2:accuracy>
              <ns2:payloadFloat>
                <ns2:value>26.0</ns2:value>
              </ns2:payloadFloat>
              <ns7:oadrDataQuality>Quality Good - Non Specific</ns7:oadrDataQuality>
            </ns7:oadrReportPayload>
          </ns2:interval>
        </ns6:intervals>
        <ns2:eiReportID>RP_54321</ns2:eiReportID>
        <ns2:reportRequestID>ReportReqID091219_134643_531</ns2:reportRequestID>
        <ns2:reportSpecifierID>ReportSpecifierID091219_134549_983_1</ns2:reportSpecifierID>
        <ns2:reportName>TELEMETRY_STATUS</ns2:reportName>
        <ns2:createdDateTime>2019-09-12T20:46:58Z</ns2:createdDateTime>
      </ns7:oadrReport>
      <ns2:venID>VEN090219_124714_657</ns2:venID>
    </ns7:oadrUpdateReport>
  </ns7:oadrSignedObject>
</ns7:oadrPayload>

Schema Validation has Passed
Performing OadrUpdateReport Conformance Rule validation
Conformance Rule Validation Passed
------------------------------------------

----------------RESPONSE---------------------
Current Time : 2019-09-12T20:47:01Z
<?xml version="1.0" encoding="UTF-8"?>
<ns7:oadrPayload xmlns="http://www.w3.org/2000/09/xmldsig#"
  xmlns:ns10="http://www.opengis.net/gml/3.2"
  xmlns:ns11="http://docs.oasis-open.org/ns/emix/2011/06/siscale"
  xmlns:ns12="http://www.w3.org/2009/xmldsig11#"
  xmlns:ns13="urn:un:unece:uncefact:codelist:standard:5:ISO42173A:2010-04-07"
  xmlns:ns2="http://docs.oasis-open.org/ns/energyinterop/201110"
  xmlns:ns3="http://docs.oasis-open.org/ns/energyinterop/201110/payloads"
  xmlns:ns4="http://docs.oasis-open.org/ns/emix/2011/06"
  xmlns:ns5="urn:ietf:params:xml:ns:icalendar-2.0"
  xmlns:ns6="urn:ietf:params:xml:ns:icalendar-2.0:stream"
  xmlns:ns7="http://openadr.org/oadr-2.0b/2012/07"
  xmlns:ns8="http://www.w3.org/2005/Atom" xmlns:ns9="http://docs.oasis-open.org/ns/emix/2011/06/power">
  <ns7:oadrSignedObject>
    <ns7:oadrUpdatedReport ns2:schemaVersion="2.0b">
      <ns2:eiResponse>
        <ns2:responseCode>200</ns2:responseCode>
        <ns2:responseDescription>OK</ns2:responseDescription>
        <ns3:requestID>ReportUpdReqID091219_134659_027</ns3:requestID>
      </ns2:eiResponse>
      <ns2:venID>VEN090219_124714_657</ns2:venID>
    </ns7:oadrUpdatedReport>
  </ns7:oadrSignedObject>
</ns7:oadrPayload>

Schema Validation has Passed
Performing OadrUpdatedReport Conformance Rule validation
Conformance Rule Validation Passed
------------------------------------------

-------------HTTP RESPONSE------------------
HTTP Status :OK (200) - The request has succeeded 


-------------HTTP REQUEST-------------------
Current Time : 2019-09-12T20:48:07Z

----Client Address---
127.0.0.1

----Header---
[Accept: */*]
[Connection: keep-alive]
[Pragma: no-cache]
[Cache-Control: no-cache]
[Date: Thu, 12 Sep 2019 20:48:07 GMT]
[User-Agent: Restlet-Framework/2.1snapshot]
[Content-Type: application/xml; charset=UTF-8]
[Content-Length: 4728]
[Host: 127.0.0.1:8080]

VEN -> VTN
----------------REQUEST---------------------
Received by TestHarness VTN Service : EiReport

<?xml version="1.0" encoding="UTF-8"?>
<ns7:oadrPayload xmlns="http://www.w3.org/2000/09/xmldsig#"
  xmlns:ns10="http://www.opengis.net/gml/3.2"
  xmlns:ns11="http://docs.oasis-open.org/ns/emix/2011/06/siscale"
  xmlns:ns12="http://www.w3.org/2009/xmldsig11#"
  xmlns:ns13="urn:un:unece:uncefact:codelist:standard:5:ISO42173A:2010-04-07"
  xmlns:ns2="http://docs.oasis-open.org/ns/energyinterop/201110"
  xmlns:ns3="http://docs.oasis-open.org/ns/energyinterop/201110/payloads"
  xmlns:ns4="http://docs.oasis-open.org/ns/emix/2011/06"
  xmlns:ns5="urn:ietf:params:xml:ns:icalendar-2.0"
  xmlns:ns6="urn:ietf:params:xml:ns:icalendar-2.0:stream"
  xmlns:ns7="http://openadr.org/oadr-2.0b/2012/07"
  xmlns:ns8="http://www.w3.org/2005/Atom" xmlns:ns9="http://docs.oasis-open.org/ns/emix/2011/06/power">
  <ns7:oadrSignedObject>
    <ns7:oadrUpdateReport ns2:schemaVersion="2.0b">
      <ns3:requestID>ReportUpdReqID091219_134805_816</ns3:requestID>
      <ns7:oadrReport>
        <ns5:dtstart>
          <ns5:date-time>2019-09-12T20:48:05Z</ns5:date-time>
        </ns5:dtstart>
        <ns6:intervals>
          <ns2:interval>
            <ns5:dtstart>
              <ns5:date-time>2019-09-12T20:48:05Z</ns5:date-time>
            </ns5:dtstart>
            <ns7:oadrReportPayload>
              <ns2:rID>Status:rID091219_134550_504_0</ns2:rID>
              <ns7:oadrPayloadResourceStatus>
                <ns7:oadrOnline>true</ns7:oadrOnline>
                <ns7:oadrManualOverride>false</ns7:oadrManualOverride>
                <ns7:oadrLoadControlState>
                  <ns7:oadrLevelOffset>
                    <ns7:oadrCurrent>0.0</ns7:oadrCurrent>
                  </ns7:oadrLevelOffset>
                </ns7:oadrLoadControlState>
              </ns7:oadrPayloadResourceStatus>
            </ns7:oadrReportPayload>
            <ns7:oadrReportPayload>
              <ns2:rID>Current Temp:rID091219_134551_010_1</ns2:rID>
              <ns2:confidence>100</ns2:confidence>
              <ns2:accuracy>0.0</ns2:accuracy>
              <ns2:payloadFloat>
                <ns2:value>61.4</ns2:value>
              </ns2:payloadFloat>
              <ns7:oadrDataQuality>Quality Good - Non Specific</ns7:oadrDataQuality>
            </ns7:oadrReportPayload>
            <ns7:oadrReportPayload>
              <ns2:rID>Heat Temp Setting:rID091219_134551_534_2</ns2:rID>
              <ns2:confidence>100</ns2:confidence>
              <ns2:accuracy>0.0</ns2:accuracy>
              <ns2:payloadFloat>
                <ns2:value>80.0</ns2:value>
              </ns2:payloadFloat>
              <ns7:oadrDataQuality>Quality Good - Non Specific</ns7:oadrDataQuality>
            </ns7:oadrReportPayload>
            <ns7:oadrReportPayload>
              <ns2:rID>Cool Temp Setting:rID091219_134552_049_3</ns2:rID>
              <ns2:confidence>100</ns2:confidence>
              <ns2:accuracy>0.0</ns2:accuracy>
              <ns2:payloadFloat>
                <ns2:value>75.0</ns2:value>
              </ns2:payloadFloat>
              <ns7:oadrDataQuality>Quality Good - Non Specific</ns7:oadrDataQuality>
            </ns7:oadrReportPayload>
            <ns7:oadrReportPayload>
              <ns2:rID>HVAC Mode Setting:rID091219_134552_564_4</ns2:rID>
              <ns2:confidence>100</ns2:confidence>
              <ns2:accuracy>0.0</ns2:accuracy>
              <ns2:payloadFloat>
                <ns2:value>2.0</ns2:value>
              </ns2:payloadFloat>
              <ns7:oadrDataQuality>Quality Good - Non Specific</ns7:oadrDataQuality>
            </ns7:oadrReportPayload>
            <ns7:oadrReportPayload>
              <ns2:rID>Current HVAC Mode:rID091219_134553_085_5</ns2:rID>
              <ns2:confidence>100</ns2:confidence>
              <ns2:accuracy>0.0</ns2:accuracy>
              <ns2:payloadFloat>
                <ns2:value>2.0</ns2:value>
              </ns2:payloadFloat>
              <ns7:oadrDataQuality>Quality Good - Non Specific</ns7:oadrDataQuality>
            </ns7:oadrReportPayload>
            <ns7:oadrReportPayload>
              <ns2:rID>Fan Mode Setting:rID091219_134553_593_6</ns2:rID>
              <ns2:confidence>100</ns2:confidence>
              <ns2:accuracy>0.0</ns2:accuracy>
              <ns2:payloadFloat>
                <ns2:value>1.0</ns2:value>
              </ns2:payloadFloat>
              <ns7:oadrDataQuality>Quality Good - Non Specific</ns7:oadrDataQuality>
            </ns7:oadrReportPayload>
            <ns7:oadrReportPayload>
              <ns2:rID>Current Hold Mode:rID091219_134554_111_7</ns2:rID>
              <ns2:confidence>100</ns2:confidence>
              <ns2:accuracy>0.0</ns2:accuracy>
              <ns2:payloadFloat>
                <ns2:value>1.0</ns2:value>
              </ns2:payloadFloat>
              <ns7:oadrDataQuality>Quality Good - Non Specific</ns7:oadrDataQuality>
            </ns7:oadrReportPayload>
            <ns7:oadrReportPayload>
              <ns2:rID>Current Away Mode:rID091219_134554_627_8</ns2:rID>
              <ns2:confidence>100</ns2:confidence>
              <ns2:accuracy>0.0</ns2:accuracy>
              <ns2:payloadFloat>
                <ns2:value>0.0</ns2:value>
              </ns2:payloadFloat>
              <ns7:oadrDataQuality>Quality Good - Non Specific</ns7:oadrDataQuality>
            </ns7:oadrReportPayload>
            <ns7:oadrReportPayload>
              <ns2:rID>Current Humidity:rID091219_134555_140_9</ns2:rID>
              <ns2:confidence>100</ns2:confidence>
              <ns2:accuracy>0.0</ns2:accuracy>
              <ns2:payloadFloat>
                <ns2:value>26.3</ns2:value>
              </ns2:payloadFloat>
              <ns7:oadrDataQuality>Quality Good - Non Specific</ns7:oadrDataQuality>
            </ns7:oadrReportPayload>
          </ns2:interval>
        </ns6:intervals>
        <ns2:eiReportID>RP_54321</ns2:eiReportID>
        <ns2:reportRequestID>ReportReqID091219_134643_531</ns2:reportRequestID>
        <ns2:reportSpecifierID>ReportSpecifierID091219_134549_983_1</ns2:reportSpecifierID>
        <ns2:reportName>TELEMETRY_STATUS</ns2:reportName>
        <ns2:createdDateTime>2019-09-12T20:48:05Z</ns2:createdDateTime>
      </ns7:oadrReport>
      <ns2:venID>VEN090219_124714_657</ns2:venID>
    </ns7:oadrUpdateReport>
  </ns7:oadrSignedObject>
</ns7:oadrPayload>

Schema Validation has Passed
Performing OadrUpdateReport Conformance Rule validation
Conformance Rule Validation Passed
------------------------------------------

----------------RESPONSE---------------------
Current Time : 2019-09-12T20:48:08Z
<?xml version="1.0" encoding="UTF-8"?>
<ns7:oadrPayload xmlns="http://www.w3.org/2000/09/xmldsig#"
  xmlns:ns10="http://www.opengis.net/gml/3.2"
  xmlns:ns11="http://docs.oasis-open.org/ns/emix/2011/06/siscale"
  xmlns:ns12="http://www.w3.org/2009/xmldsig11#"
  xmlns:ns13="urn:un:unece:uncefact:codelist:standard:5:ISO42173A:2010-04-07"
  xmlns:ns2="http://docs.oasis-open.org/ns/energyinterop/201110"
  xmlns:ns3="http://docs.oasis-open.org/ns/energyinterop/201110/payloads"
  xmlns:ns4="http://docs.oasis-open.org/ns/emix/2011/06"
  xmlns:ns5="urn:ietf:params:xml:ns:icalendar-2.0"
  xmlns:ns6="urn:ietf:params:xml:ns:icalendar-2.0:stream"
  xmlns:ns7="http://openadr.org/oadr-2.0b/2012/07"
  xmlns:ns8="http://www.w3.org/2005/Atom" xmlns:ns9="http://docs.oasis-open.org/ns/emix/2011/06/power">
  <ns7:oadrSignedObject>
    <ns7:oadrUpdatedReport ns2:schemaVersion="2.0b">
      <ns2:eiResponse>
        <ns2:responseCode>200</ns2:responseCode>
        <ns2:responseDescription>OK</ns2:responseDescription>
        <ns3:requestID>ReportUpdReqID091219_134805_816</ns3:requestID>
      </ns2:eiResponse>
      <ns2:venID>VEN090219_124714_657</ns2:venID>
    </ns7:oadrUpdatedReport>
  </ns7:oadrSignedObject>
</ns7:oadrPayload>

Schema Validation has Passed
Performing OadrUpdatedReport Conformance Rule validation
Conformance Rule Validation Passed
------------------------------------------

-------------HTTP RESPONSE------------------
HTTP Status :OK (200) - The request has succeeded 


Waiting for user action : Thu Sep 12 13:48:17 PDT 2019
User action received. Playing Test Case again. :Thu Sep 12 13:48:21 PDT 2019

The expected flow is completed

Test Case has PASSED
